
Finacle Core Version [10.2.16] (FATAL ERROR DIAGNOSTICS INFORMATION)
File: [apuu5002.cxx]
Line: [1586]
Status: [0]
Date: [28-05-2018 15:19:32]
User ID: [UBSROOT]
Message : [Unauthorized Session::O:11876449]
Error Code : [FTL0000300]
Outside BJS
Session Id: O:11876449

================================================================================

